<?xml version="1.0" encoding="utf-8"?>
<!-- Generator: Adobe Illustrator 17.0.2, SVG Export Plug-In . SVG Version: 6.00 Build 0)  -->
<!DOCTYPE svg PUBLIC "-//W3C//DTD SVG 1.1//EN" "http://www.w3.org/Graphics/SVG/1.1/DTD/svg11.dtd">
<svg version="1.1" id="Layer_1" xmlns="http://www.w3.org/2000/svg" xmlns:xlink="http://www.w3.org/1999/xlink" x="0px" y="0px"
	 width="56.693px" height="56.693px" viewBox="0 0 56.693 56.693" enable-background="new 0 0 56.693 56.693" xml:space="preserve" fill="#7f7f7f">
<g>
	<path d="M29.665,23.897c3.422,0,6.206-2.784,6.206-6.207s-2.784-6.208-6.206-6.208c-3.423,0-6.208,2.785-6.208,6.208
		S26.242,23.897,29.665,23.897z M29.665,13.482c2.319,0,4.206,1.888,4.206,4.208c0,2.319-1.887,4.207-4.206,4.207
		c-2.32,0-4.208-1.888-4.208-4.207C25.457,15.37,27.344,13.482,29.665,13.482z"/>
	<path d="M29.012,4.488c-13.541,0-24.558,11.017-24.558,24.558c0,13.542,11.017,24.56,24.558,24.56S53.57,42.587,53.57,29.045
		C53.57,15.504,42.553,4.488,29.012,4.488z M29.012,51.605c-12.438,0-22.558-10.12-22.558-22.56
		c0-12.438,10.119-22.558,22.558-22.558S51.57,16.607,51.57,29.045C51.57,41.485,41.451,51.605,29.012,51.605z"/>
	<path d="M35.641,39.416h-0.355V27.264c0-0.873-0.711-1.584-1.585-1.584H23.684c-0.72,0-1.399,0.322-1.913,0.906
		c-0.469,0.533-0.716,1.229-0.716,2.011c0,0.786,0.259,1.479,0.748,2.005c0.511,0.547,1.179,0.848,1.881,0.848h0.358v7.966h-0.358
		c-0.719,0-1.397,0.32-1.913,0.904c-0.469,0.533-0.716,1.229-0.716,2.014c0,0.785,0.259,1.478,0.749,2.004
		c0.511,0.547,1.179,0.848,1.88,0.848h11.957c0.699,0,1.367-0.3,1.881-0.848c0.49-0.524,0.749-1.218,0.749-2.004
		s-0.249-1.483-0.718-2.014C37.041,39.737,36.362,39.416,35.641,39.416z M36.063,42.97c-0.136,0.145-0.274,0.215-0.422,0.215H23.684
		c-0.147,0-0.285-0.069-0.418-0.212c-0.091-0.098-0.211-0.27-0.211-0.64c0-0.3,0.071-0.526,0.217-0.691
		c0.134-0.152,0.269-0.227,0.412-0.227h1.358c0.553,0,1-0.447,1-1V30.45c0-0.553-0.447-1-1-1h-1.358
		c-0.148,0-0.285-0.069-0.418-0.212c-0.091-0.098-0.211-0.27-0.211-0.641c0-0.298,0.071-0.523,0.218-0.69
		c0.134-0.152,0.269-0.227,0.411-0.227h9.602v12.735c0,0.553,0.447,1,1,1h1.355c0.144,0,0.277,0.073,0.412,0.227
		c0.146,0.166,0.218,0.393,0.218,0.691C36.271,42.705,36.151,42.876,36.063,42.97z"/>
</g>
</svg>
