<?xml version="1.0" encoding="utf-8"?>
<!-- Generator: Adobe Illustrator 18.0.0, SVG Export Plug-In . SVG Version: 6.00 Build 0)  -->
<!DOCTYPE svg PUBLIC "-//W3C//DTD SVG 1.1//EN" "http://www.w3.org/Graphics/SVG/1.1/DTD/svg11.dtd">
<svg version="1.1" id="Layer_1" xmlns="http://www.w3.org/2000/svg" xmlns:xlink="http://www.w3.org/1999/xlink" x="0px" y="0px"
	 width="218.182px" height="218.182px" viewBox="0 0 218.182 218.182" style="enable-background:new 0 0 218.182 218.182;"
	 xml:space="preserve">
<g>
	
		<radialGradient id="SVGID_1_" cx="1277.2094" cy="-633.4762" r="102.1059" fx="1247.8309" fy="-651.6158" gradientTransform="matrix(0.9998 0.0213 -0.0213 0.9998 -1186.7374 700.6725)" gradientUnits="userSpaceOnUse">
		<stop  offset="0" style="stop-color:#FFFFFF"/>
		<stop  offset="0.2951" style="stop-color:#ECECEB"/>
		<stop  offset="0.4912" style="stop-color:#E5E6E5"/>
		<stop  offset="0.6721" style="stop-color:#DADBDA"/>
		<stop  offset="0.8962" style="stop-color:#BCBEBE"/>
		<stop  offset="1" style="stop-color:#9C9FA0"/>
	</radialGradient>
	<path style="fill:url(#SVGID_1_);" d="M193.312,113.45c-0.992,46.556-39.54,83.486-86.097,82.498
		c-46.555-0.993-83.49-39.541-82.496-86.093c0.994-46.554,39.54-83.493,86.091-82.499C157.367,28.35,194.303,66.895,193.312,113.45z
		"/>
	
		<radialGradient id="SVGID_2_" cx="1852.085" cy="-143.0552" r="89.0315" fx="1843.6542" fy="-153.5937" gradientTransform="matrix(0.9935 -0.1139 0.1139 0.9935 -1700.007 472.9084)" gradientUnits="userSpaceOnUse">
		<stop  offset="0" style="stop-color:#E5E5E5"/>
		<stop  offset="0.6552" style="stop-color:#ECECEB"/>
		<stop  offset="0.6721" style="stop-color:#ECECEB"/>
		<stop  offset="0.8962" style="stop-color:#FFFFFF"/>
		<stop  offset="1" style="stop-color:#FFFFFF"/>
	</radialGradient>
	<path style="fill:url(#SVGID_2_);" d="M63.333,46.458c-25.586,16.768-33.641,45.892-17.992,65.05
		c15.646,19.16,49.065,21.099,74.648,4.327c25.579-16.766,33.633-45.889,17.986-65.048C122.333,31.624,88.913,29.689,63.333,46.458z
		"/>
</g>
<radialGradient id="SVGID_3_" cx="1277.2067" cy="-633.4745" r="102.1068" fx="1247.828" fy="-651.6143" gradientTransform="matrix(0.9998 0.0213 -0.0213 0.9998 -1186.7374 700.6725)" gradientUnits="userSpaceOnUse">
	<stop  offset="0" style="stop-color:#FFFFFF"/>
	<stop  offset="0.2951" style="stop-color:#C7C9C9"/>
	<stop  offset="0.6314" style="stop-color:#C0C1C1"/>
	<stop  offset="0.6721" style="stop-color:#BEC0C0"/>
	<stop  offset="0.8962" style="stop-color:#9A9D9E"/>
	<stop  offset="1" style="stop-color:#5E6163"/>
</radialGradient>
<path style="fill:url(#SVGID_3_);" d="M192.602,112.631c-0.092-0.027-0.188-0.041-0.282-0.053l0,0l-9.331-0.536
	c-0.51-0.059-0.767-0.034-0.961,0.021c-0.671,0.2-1.155,0.751-1.155,0.751s-25.915,26.768-26.703,27.599
	c-0.79,0.836-1.569,1.722-1.944,3.452c-0.367,1.725,0.35,3.733,0.35,3.733s3.713,10.993,2.81,21.71
	c-0.611,7.02-3.314,13.698-8.919,17.896c27.193-13.51,46.149-41.292,46.845-73.756c0-0.117,0-0.232,0-0.348
	C193.129,112.889,192.893,112.717,192.602,112.631z"/>
<radialGradient id="SVGID_4_" cx="1277.7516" cy="-603.7938" r="128.1439" fx="1288.234" fy="-610.8527" gradientTransform="matrix(0.9998 0.0213 -0.0213 0.9998 -1186.7374 700.6725)" gradientUnits="userSpaceOnUse">
	<stop  offset="0" style="stop-color:#FFFFFF"/>
	<stop  offset="0.2951" style="stop-color:#ACAFAF"/>
	<stop  offset="0.5269" style="stop-color:#A4A7A8"/>
	<stop  offset="0.6721" style="stop-color:#9C9FA0"/>
	<stop  offset="0.8962" style="stop-color:#46494A"/>
	<stop  offset="1" style="stop-color:#4F5253"/>
</radialGradient>
<path style="fill:url(#SVGID_4_);" d="M63.333,46.458c25.58-16.769,59-14.834,74.643,4.329
	c11.927,14.603,10.082,34.994-2.799,51.294c8.073,1.399,16.682,3.209,25.614,5.547c0,0,1.354,0.34,2.222-0.063
	c0.874-0.405,2.394-1.795,2.091-5.523c0,0-3.689-32.033-22.303-67.657c-5.382-2.355-11.055-4.168-16.964-5.364l-6.301,6.848
	c0,0-10.541-5.052-24.378-7.397c-26.325,4.354-48.631,20.942-60.726,43.834c2.154-1.337,4.796-2.512,8.017-3.289
	C46.803,60.562,53.864,52.665,63.333,46.458z"/>
<radialGradient id="SVGID_5_" cx="1766.4122" cy="-112.5404" r="105.1688" gradientTransform="matrix(0.9935 -0.1139 0.1139 0.9935 -1700.007 472.9084)" gradientUnits="userSpaceOnUse">
	<stop  offset="0" style="stop-color:#A6A9AA"/>
	<stop  offset="0.1093" style="stop-color:#ACAFAF"/>
	<stop  offset="0.2652" style="stop-color:#BDBFBF"/>
	<stop  offset="0.4481" style="stop-color:#DBDBDB"/>
	<stop  offset="0.5847" style="stop-color:#FFFFFF"/>
	<stop  offset="0.9071" style="stop-color:#B3B5B5"/>
	<stop  offset="1" style="stop-color:#B8BBBB"/>
</radialGradient>
<path style="fill:url(#SVGID_5_);" d="M83.732,79.459l2.316-2.429c-20.637-9.294-34.455-10.227-43.6-8.012
	c4.354-8.456,11.416-16.352,20.885-22.56c25.58-16.769,59-14.834,74.643,4.329c11.927,14.603,10.082,34.994-2.799,51.294
	c-32.017-4.934-41.998-4.781-60.395-4.368c0,0-1.771-0.139-1.994-1.902c-0.219-1.764,2.026-5.293,2.026-5.293l7.475-9.242
	C82.289,81.276,82.925,80.11,83.732,79.459z"/>
<path style="fill:#28548B;" d="M82.983,78.554l-1.599,11.303c0,0-0.181,1.216,1.01,1.988c1.191,0.772,2.99,0.997,3.716,1.046
	c0,0,37.93,0.358,77.364,11.946c0,0,0.942,0.278,1.427,0.298c0.499,0.02,0.967-0.101,1.269-0.161
	c0.286-0.059,9.441-1.525,10.987-1.763c0,0-17.918-9.553-52.14-16.982c-20.928-4.472-37.305-5.578-38.883-5.852
	C86.134,80.379,83.834,80.107,82.983,78.554z"/>
<linearGradient id="SVGID_6_" gradientUnits="userSpaceOnUse" x1="27.9944" y1="58.1068" x2="180.1385" y2="58.1068">
	<stop  offset="0" style="stop-color:#297DC1"/>
	<stop  offset="1" style="stop-color:#3465B0"/>
</linearGradient>
<path style="fill:url(#SVGID_6_);" d="M92.459,69.458l-7.387,6.225c-0.773,0.657-2.161,1.935-2.104,3.151
	c0.055,1.213,1.421,3.149,5.86,3.653c0,0,42.485,2.927,86.34,20.462c0,0,1.298,0.501,2.21,0.213c0.921-0.297,2.6-1.486,2.76-5.226
	c0,0,0.364-37.763-17.516-79.282c0,0-1.202-3.209-4.411-3.354c-1.464-0.105-2.573,0.684-3.168,1.235l-11.926,10.093
	c0,0-16.373-10.521-35.724-13.086c-19.349-2.565-30.67,4.121-33.217,5.778c-2.546,1.659-46.182,31.883-46.182,31.883l0.12,0.268
	c0,0,23.23-18.376,71.466,11.027l1.52-0.317L92.459,69.458z"/>
<path style="fill:#28548B;" d="M18.288,64.796c-5.37,16.517,0.063,34.591,6.426,48.397c-0.15-8.387,0.942-16.786,3.271-24.896
	c0.062-5.066,0.877-10.26,2.813-15.348c2.48-6.131,4.575-17.887,33.833-14.259l0,0c0,0,13.158,2.137,27.829,10.768l8.642-7.278
	c0,0-24.247-16.654-49.605-17.584C51.496,44.596,25.445,42.803,18.288,64.796z"/>
<path style="fill:#1C3F70;" d="M27.638,73.721c-2.886,7.36-2.892,15.373-1.583,22.837c2.388-13.179,7.919-25.885,16.577-36.904
	C30.541,63.878,27.638,73.721,27.638,73.721z"/>
<path style="fill:#1C3F70;" d="M146.689,192.655c7.82-3.046,12.042-8.665,14.252-14.568c-11.161,8.748-23.992,14.272-37.259,16.604
	C131.648,195.83,139.567,195.431,146.689,192.655z"/>
<path style="fill:#28548B;" d="M126.409,201.299c16.955,3.445,31.84,0.545,40.232-9.622c0,0,0.563-0.667,1.4-1.817
	c0.696-0.963,1.58-2.245,2.5-3.78c2.029-3.362,9.48-18.979,0.745-44.444c-1.148-2.901-1.695-6.045,0.922-8.671
	c2.615-2.626,27.434-34.5,27.434-34.5l0.18-2.158l-10.952,0.139c-0.605-0.022-0.898,0.024-1.121,0.106
	c-0.767,0.288-1.288,0.97-1.288,0.97s-28.083,33.42-28.936,34.458c-0.848,1.041-1.689,2.145-1.984,4.192
	c-0.296,2.049,0.72,4.34,0.72,4.34s5.241,12.541,5.073,25.142c-0.259,15.188-8.874,29.634-32.893,28.09
	c-0.038,0-0.077-0.005-0.113-0.009c-6.224,1.459-12.576,2.202-18.932,2.231C114.731,198.18,120.488,200.092,126.409,201.299z"/>
<path style="fill:#28548B;" d="M171.286,141.635c-1.148-2.901-1.407-6.349,1.207-8.975l-14.543-1.163l-0.425,0.483
	c-0.848,1.041-1.689,2.145-1.984,4.192c-0.296,2.049,0.72,4.34,0.72,4.34L171.286,141.635z"/>
<path style="fill:#28548B;" d="M172.209,132.964c2.615-2.626,27.434-34.5,27.434-34.5l0.18-2.158l-10.952,0.139
	c-0.605-0.022-0.898,0.024-1.121,0.106c-0.767,0.288-1.288,0.97-1.288,0.97s-28.083,33.42-28.936,34.458L172.209,132.964z"/>
<linearGradient id="SVGID_7_" gradientUnits="userSpaceOnUse" x1="-194.7382" y1="-6828.0415" x2="-91.9289" y2="-6749.918" gradientTransform="matrix(0.9974 0.0722 -0.0722 0.9974 -199.9878 6892.1548)">
	<stop  offset="0" style="stop-color:#297DC1"/>
	<stop  offset="1" style="stop-color:#3465B0"/>
</linearGradient>
<path style="fill:url(#SVGID_7_);" d="M198.213,97.274l-28.43,35.141c-0.779,0.898-1.624,2.1-1.999,4.358
	c-0.373,2.257,0.796,5.048,0.796,5.048c3.754,9.913,6.044,21.691,5.081,31.393c0,0-0.559,9.759-5.62,16.646l30.451-42.689
	c0,0,4.08-5.606,5.751-13.472c1.668-7.871,2.768-19.706-2.309-35.36c0,0-0.534-1.72-1.776-1.997
	C199.355,96.17,198.783,96.578,198.213,97.274z"/>
<g>
</g>
<g>
</g>
<g>
</g>
<g>
</g>
<g>
</g>
<g>
</g>
</svg>
