<?xml version="1.0" encoding="utf-8"?>
<!-- Generator: Adobe Illustrator 17.0.2, SVG Export Plug-In . SVG Version: 6.00 Build 0)  -->
<!DOCTYPE svg PUBLIC "-//W3C//DTD SVG 1.1//EN" "http://www.w3.org/Graphics/SVG/1.1/DTD/svg11.dtd">
<svg version="1.1" id="Layer_1" xmlns="http://www.w3.org/2000/svg" xmlns:xlink="http://www.w3.org/1999/xlink" x="0px" y="0px"
	 width="56.693px" height="56.693px" viewBox="0 0 56.693 56.693" enable-background="new 0 0 56.693 56.693" xml:space="preserve" fill="#000">
<path d="M46.571,7.843c-0.221-0.19-0.512-0.273-0.799-0.232l-13.521,1.98c-0.491,0.071-0.855,0.493-0.855,0.989v0.275h-3.509v-0.071
	h0.626c0.553,0,1-0.447,1-1V5.63c0-0.553-0.447-1-1-1h-7.623c-0.553,0-1,0.447-1,1v4.154c0,0.553,0.447,1,1,1h0.627v1.631h-3.056
	c-2.379,0-6.879,1.521-6.879,7.279v20.097c-0.381,0.298-0.631,0.756-0.631,1.278v1.486c0,0.898,0.728,1.627,1.627,1.627h0.006
	c0.899,0,1.628-0.729,1.628-1.627v-1.486c0-0.521-0.25-0.979-0.631-1.277V19.695c0-5.09,4.384-5.275,4.879-5.279h3.056v1.411
	c-2.275,0.885-5.626,3.743-5.623,8.185v27.472c-0.002,0.387,0.072,1.366,0.796,2.093c0.333,0.334,0.931,0.732,1.889,0.732h12.087
	c0.959,0,1.558-0.399,1.891-0.734c0.724-0.728,0.796-1.706,0.794-2.087V24.013c0.004-4.453-3.259-7.301-5.486-8.183v-0.175h3.532
	v0.184c0,0.494,0.361,0.915,0.851,0.988l13.521,2.049c0.05,0.008,0.1,0.012,0.149,0.012c0.237,0,0.47-0.085,0.652-0.242
	c0.221-0.189,0.348-0.467,0.348-0.758V8.6C46.917,8.31,46.791,8.034,46.571,7.843z M26.886,13.656c-0.553,0-1,0.447-1,1v0.103
	c-0.016,0.069-0.023,0.142-0.023,0.216v1.594c0,0.479,0.34,0.892,0.811,0.982c1.032,0.198,4.68,2.232,4.676,6.462v27.48
	c0.001,0.227-0.063,0.521-0.213,0.671c-0.035,0.036-0.144,0.145-0.472,0.145H18.578c-0.328,0-0.436-0.108-0.472-0.144
	c-0.148-0.149-0.214-0.446-0.213-0.678V24.01c-0.003-4.202,3.752-6.255,4.813-6.462c0.471-0.091,0.81-0.503,0.81-0.981V9.785
	c0-0.553-0.447-1-1-1h-0.627V6.63h5.623v2.154h-0.626c-0.553,0-1,0.447-1,1v2.071c0,0.553,0.447,1,1,1h4.509v0.8H26.886z
	 M44.917,16.725l-11.521-1.746v-0.005v-0.318v-2.8v-0.411l11.521-1.688V16.725z"/>
</svg>
